{
    "rules": {
      "align": [
        true,
        "parameters",
        "arguments",
        "statements"
      ],
      "ban": [
        true,
        [ "_", "forEach" ],
        [ "_", "each" ],
        [ "$", "each" ],
        [ "angular", "forEach" ]
      ],
      "class-name": true,
      "comment-format": [
        true,
        "check-space",
        "check-lowercase"
      ],
      "curly": true,
      "eofline": false,
      "forin": true,
      "import-spacing": true,
      "indent": [
        true,
        "spaces",
        4
      ],
      "interface-name": [
        true,
        "always-prefix"
      ],
      "jsdoc-format": false,
      "label-position": true,
      "max-line-length": [
        true,
        140
      ],
      "member-access": true,
      "member-ordering": [
        true,
        { "order": "fields-first" }
      ],
      "new-parens": true,
      "no-angle-bracket-type-assertion": true,
      "no-any": false,
      "no-arg": true,
      "no-bitwise": true,
      "no-conditional-assignment": true,
      "no-consecutive-blank-lines": true,
      "no-console": [
        true,
        "debug",
        "info",
        "time",
        "timeEnd",
        "trace"
      ],
      "no-construct": true,
      "no-debugger": true,
      "no-default-export": false,
      "no-duplicate-variable": true,
      "no-empty": true,
      "no-eval": true,
      "no-inferrable-types": false,
      "no-internal-module": true,
      "no-invalid-this": false,
      "no-mergeable-namespace": true,
      "no-null-keyword": true,
      "no-reference": true,
      "no-require-imports": false,
      "no-shadowed-variable": true,
      "no-string-literal": true,
      "no-switch-case-fall-through": true,
      "no-trailing-whitespace": true,
      "no-unused-expression": true,
      "no-use-before-declare": true,
      "no-var-keyword": true,
      "no-var-requires": true,
      "object-literal-sort-keys": false,
      "one-line": [
        true,
        "check-open-brace",
        "check-catch",
        "check-else",
        "check-finally",
        "check-whitespace"
      ],
      "one-variable-per-declaration": [true,
        "ignore-for-loop"
      ],
      "quotemark": [
        true,
        "single",
        "avoid-escape"
      ],
      "radix": true,
      "semicolon": [true, "always"],
      "switch-default": true,
      "trailing-comma": [
        true
      ],
      "triple-equals": [
        true,
        "allow-null-check",
        "allow-undefined-check"
      ],
      "typedef": [
        true,
        "call-signature",
        "parameter",
        "arrow-parameter",
        "property-declaration",
        "variable-declaration",
        "member-variable-declaration"
      ],
      "typedef-whitespace": [
        true,
        {
          "call-signature": "nospace",
          "index-signature": "nospace",
          "parameter": "nospace",
          "property-declaration": "nospace",
          "variable-declaration": "nospace"
        },
        {
          "call-signature": "space",
          "index-signature": "space",
          "parameter": "space",
          "property-declaration": "space",
          "variable-declaration": "space"
        }
      ],
      "use-isnan": true,
      "variable-name": [
        true,
        "check-format",
        "allow-leading-underscore",
        "ban-keywords"
      ],
      "whitespace": [
        true,
        "check-branch",
        "check-decl",
        "check-module",
        "check-operator",
        "check-separator",
        "check-type"
      ]
    }
  }
  